(kicad_symbol_lib (version 20220914) (generator kicad_symbol_editor)
  (symbol "AD628" (pin_names (offset 0.127)) (in_bom yes) (on_board yes)
    (property "Reference" "U" (at 3.81 3.175 0)
      (effects (font (size 1.27 1.27)) (justify left))
    )
    (property "Value" "AD628" (at 3.81 -3.175 0)
      (effects (font (size 1.27 1.27)) (justify left))
    )
    (property "Footprint" "" (at 0 0 0)
      (effects (font (size 1.27 1.27)) hide)
    )
    (property "Datasheet" "https://www.analog.com/media/en/technical-documentation/data-sheets/AD628.pdf" (at 0 0 0)
      (effects (font (size 1.27 1.27)) hide)
    )
    (property "ki_keywords" "difference amplifier" (at 0 0 0)
      (effects (font (size 1.27 1.27)) hide)
    )
    (property "ki_description" "High Common-Mode Voltage, Programmable Gain Difference Amplifier, +/-120V, Gain = 0.1 to 100, SOIC-8/MSOP-8" (at 0 0 0)
      (effects (font (size 1.27 1.27)) hide)
    )
    (property "ki_fp_filters" "SOIC*3.9x4.9mm*P1.27mm* MSOP*3x3mm*P0.65mm*" (at 0 0 0)
      (effects (font (size 1.27 1.27)) hide)
    )
    (symbol "AD628_0_1"
      (polyline
        (pts
          (xy 5.08 0)
          (xy -5.08 5.08)
          (xy -5.08 -5.08)
          (xy 5.08 0)
        )
        (stroke (width 0.254) (type default))
        (fill (type background))
      )
    )
    (symbol "AD628_1_1"
      (pin input line (at -7.62 2.54 0) (length 2.54)
        (name "+" (effects (font (size 1.27 1.27))))
        (number "1" (effects (font (size 1.27 1.27))))
      )
      (pin power_in line (at -2.54 -7.62 90) (length 3.81)
        (name "V-" (effects (font (size 1.27 1.27))))
        (number "2" (effects (font (size 1.27 1.27))))
      )
      (pin passive line (at 0 -7.62 90) (length 5.08)
        (name "VREF" (effects (font (size 0.508 0.508))))
        (number "3" (effects (font (size 1.27 1.27))))
      )
      (pin passive line (at 2.54 -7.62 90) (length 6.35)
        (name "CFILT" (effects (font (size 0.508 0.508))))
        (number "4" (effects (font (size 1.27 1.27))))
      )
      (pin output line (at 7.62 0 180) (length 2.54)
        (name "~" (effects (font (size 1.27 1.27))))
        (number "5" (effects (font (size 1.27 1.27))))
      )
      (pin passive line (at 0 7.62 270) (length 5.08)
        (name "RG" (effects (font (size 0.508 0.508))))
        (number "6" (effects (font (size 1.27 1.27))))
      )
      (pin power_in line (at -2.54 7.62 270) (length 3.81)
        (name "V+" (effects (font (size 1.27 1.27))))
        (number "7" (effects (font (size 1.27 1.27))))
      )
      (pin input line (at -7.62 -2.54 0) (length 2.54)
        (name "-" (effects (font (size 1.27 1.27))))
        (number "8" (effects (font (size 1.27 1.27))))
      )
    )
  )
  (symbol "AD8207" (in_bom yes) (on_board yes)
    (property "Reference" "U" (at -7.62 10.795 0)
      (effects (font (size 1.27 1.27)) (justify right))
    )
    (property "Value" "AD8207" (at -7.62 8.89 0)
      (effects (font (size 1.27 1.27)) (justify right))
    )
    (property "Footprint" "Package_SO:SOIC-8_3.9x4.9mm_P1.27mm" (at 0 0 0)
      (effects (font (size 1.27 1.27)) hide)
    )
    (property "Datasheet" "https://www.analog.com/media/en/technical-documentation/data-sheets/AD8207.pdf" (at 16.51 -17.78 0)
      (effects (font (size 1.27 1.27)) hide)
    )
    (property "ki_keywords" "highside HS current sense difference amplifier linear buffered" (at 0 0 0)
      (effects (font (size 1.27 1.27)) hide)
    )
    (property "ki_description" "65V (35V) Zero-Drift, High Voltage, Bidirectional, Difference Amplifier, 20V/V gain, bandwidth 150kHz, Vcc=5V (3.3V), SOIC-8" (at 0 0 0)
      (effects (font (size 1.27 1.27)) hide)
    )
    (property "ki_fp_filters" "SOIC*3.9x4.9mm*P1.27mm*" (at 0 0 0)
      (effects (font (size 1.27 1.27)) hide)
    )
    (symbol "AD8207_0_1"
      (rectangle (start -7.62 7.62) (end 7.62 -7.62)
        (stroke (width 0.254) (type default))
        (fill (type background))
      )
    )
    (symbol "AD8207_1_1"
      (pin input line (at 5.08 10.16 270) (length 2.54)
        (name "-IN" (effects (font (size 1.27 1.27))))
        (number "1" (effects (font (size 1.27 1.27))))
      )
      (pin power_in line (at 0 -10.16 90) (length 2.54)
        (name "GND" (effects (font (size 1.27 1.27))))
        (number "2" (effects (font (size 1.27 1.27))))
      )
      (pin input line (at 10.16 -2.54 180) (length 2.54)
        (name "Vref2" (effects (font (size 1.27 1.27))))
        (number "3" (effects (font (size 1.27 1.27))))
      )
      (pin input line (at -10.16 0 0) (length 2.54)
        (name "RANGE" (effects (font (size 1.27 1.27))))
        (number "4" (effects (font (size 1.27 1.27))))
      )
      (pin output line (at 10.16 0 180) (length 2.54)
        (name "OUT" (effects (font (size 1.27 1.27))))
        (number "5" (effects (font (size 1.27 1.27))))
      )
      (pin power_in line (at -10.16 -5.08 0) (length 2.54)
        (name "V+" (effects (font (size 1.27 1.27))))
        (number "6" (effects (font (size 1.27 1.27))))
      )
      (pin input line (at -10.16 -2.54 0) (length 2.54)
        (name "Vref1" (effects (font (size 1.27 1.27))))
        (number "7" (effects (font (size 1.27 1.27))))
      )
      (pin input line (at -5.08 10.16 270) (length 2.54)
        (name "+IN" (effects (font (size 1.27 1.27))))
        (number "8" (effects (font (size 1.27 1.27))))
      )
    )
  )
  (symbol "AD8276" (pin_names (offset 0.127)) (in_bom yes) (on_board yes)
    (property "Reference" "U" (at 7.62 5.08 0)
      (effects (font (size 1.27 1.27)))
    )
    (property "Value" "AD8276" (at 7.62 2.54 0)
      (effects (font (size 1.27 1.27)))
    )
    (property "Footprint" "" (at 0 0 0)
      (effects (font (size 1.27 1.27)) hide)
    )
    (property "Datasheet" "https://www.analog.com/media/en/technical-documentation/data-sheets/AD8276_8277.pdf" (at 0 0 0)
      (effects (font (size 1.27 1.27)) hide)
    )
    (property "ki_keywords" "difference amplifier" (at 0 0 0)
      (effects (font (size 1.27 1.27)) hide)
    )
    (property "ki_description" "Low Power, Wide Supply Range, Low Cost Unity-Gain Difference Amplifier, SOIC-8/MSOP-8" (at 0 0 0)
      (effects (font (size 1.27 1.27)) hide)
    )
    (property "ki_fp_filters" "SOIC*3.9x4.9mm*P1.27mm* MSOP*3x3mm*P0.65mm*" (at 0 0 0)
      (effects (font (size 1.27 1.27)) hide)
    )
    (symbol "AD8276_0_1"
      (polyline
        (pts
          (xy -5.08 5.08)
          (xy 5.08 0)
          (xy -5.08 -5.08)
          (xy -5.08 5.08)
        )
        (stroke (width 0.254) (type default))
        (fill (type background))
      )
    )
    (symbol "AD8276_1_1"
      (pin passive line (at 0 -7.62 90) (length 5.08)
        (name "REF" (effects (font (size 0.508 0.508))))
        (number "1" (effects (font (size 1.27 1.27))))
      )
      (pin passive line (at -7.62 -2.54 0) (length 2.54)
        (name "-" (effects (font (size 1.27 1.27))))
        (number "2" (effects (font (size 1.27 1.27))))
      )
      (pin passive line (at -7.62 2.54 0) (length 2.54)
        (name "+" (effects (font (size 1.27 1.27))))
        (number "3" (effects (font (size 1.27 1.27))))
      )
      (pin power_in line (at -2.54 -7.62 90) (length 3.81)
        (name "V-" (effects (font (size 1.27 1.27))))
        (number "4" (effects (font (size 1.27 1.27))))
      )
      (pin passive line (at 0 7.62 270) (length 5.08)
        (name "SENSE" (effects (font (size 0.508 0.508))))
        (number "5" (effects (font (size 1.27 1.27))))
      )
      (pin output line (at 7.62 0 180) (length 2.54)
        (name "~" (effects (font (size 1.27 1.27))))
        (number "6" (effects (font (size 1.27 1.27))))
      )
      (pin power_in line (at -2.54 7.62 270) (length 3.81)
        (name "V+" (effects (font (size 1.27 1.27))))
        (number "7" (effects (font (size 1.27 1.27))))
      )
      (pin no_connect line (at -5.08 0 0) (length 2.54) hide
        (name "~" (effects (font (size 1.27 1.27))))
        (number "8" (effects (font (size 1.27 1.27))))
      )
    )
  )
  (symbol "INA105KP" (extends "AD8276")
    (property "Reference" "U" (at 7.62 5.08 0)
      (effects (font (size 1.27 1.27)))
    )
    (property "Value" "INA105KP" (at 7.62 2.54 0)
      (effects (font (size 1.27 1.27)))
    )
    (property "Footprint" "Package_DIP:DIP-8_W7.62mm" (at 0 0 0)
      (effects (font (size 1.27 1.27)) hide)
    )
    (property "Datasheet" "https://www.ti.com/lit/ds/symlink/ina105.pdf" (at 0 0 0)
      (effects (font (size 1.27 1.27)) hide)
    )
    (property "ki_keywords" "difference amplifier" (at 0 0 0)
      (effects (font (size 1.27 1.27)) hide)
    )
    (property "ki_description" "Low Power, Wide Supply Range, Low Cost Unity-Gain Difference Amplifier, DIP-8" (at 0 0 0)
      (effects (font (size 1.27 1.27)) hide)
    )
    (property "ki_fp_filters" "DIP*W7.62mm*" (at 0 0 0)
      (effects (font (size 1.27 1.27)) hide)
    )
  )
  (symbol "INA105KU" (extends "AD8276")
    (property "Reference" "U" (at 7.62 5.08 0)
      (effects (font (size 1.27 1.27)))
    )
    (property "Value" "INA105KU" (at 7.62 2.54 0)
      (effects (font (size 1.27 1.27)))
    )
    (property "Footprint" "Package_SO:SOIC-8_3.9x4.9mm_P1.27mm" (at 0 0 0)
      (effects (font (size 1.27 1.27)) hide)
    )
    (property "Datasheet" "https://www.ti.com/lit/ds/symlink/ina105.pdf" (at 0 0 0)
      (effects (font (size 1.27 1.27)) hide)
    )
    (property "ki_keywords" "difference amplifier" (at 0 0 0)
      (effects (font (size 1.27 1.27)) hide)
    )
    (property "ki_description" "Low Power, Wide Supply Range, Low Cost Unity-Gain Difference Amplifier, SOIC-8" (at 0 0 0)
      (effects (font (size 1.27 1.27)) hide)
    )
    (property "ki_fp_filters" "SOIC*3.9x4.9mm*P1.27mm*" (at 0 0 0)
      (effects (font (size 1.27 1.27)) hide)
    )
  )
  (symbol "AD8475ACPZ" (pin_names (offset 0.254)) (in_bom yes) (on_board yes)
    (property "Reference" "U" (at 3.81 6.35 0)
      (effects (font (size 1.27 1.27)) (justify left))
    )
    (property "Value" "AD8475ACPZ" (at 3.81 8.89 0)
      (effects (font (size 1.27 1.27)) (justify left))
    )
    (property "Footprint" "Package_CSP:LFCSP-16-1EP_3x3mm_P0.5mm_EP1.6x1.6mm" (at 0 0 0)
      (effects (font (size 1.27 1.27)) hide)
    )
    (property "Datasheet" "https://www.analog.com/media/en/technical-documentation/data-sheets/AD8475.pdf" (at 10.16 5.08 0)
      (effects (font (size 1.27 1.27)) hide)
    )
    (property "ki_keywords" "selectable gain ADC driver" (at 0 0 0)
      (effects (font (size 1.27 1.27)) hide)
    )
    (property "ki_description" "Precision, Selectable Gain, Fully Differential Funnel Amplifier, LFCSP-16" (at 0 0 0)
      (effects (font (size 1.27 1.27)) hide)
    )
    (property "ki_fp_filters" "LFCSP*1EP*3x3mm*P0.5mm*" (at 0 0 0)
      (effects (font (size 1.27 1.27)) hide)
    )
    (symbol "AD8475ACPZ_0_1"
      (polyline
        (pts
          (xy -7.62 8.89)
          (xy -7.62 -8.89)
          (xy 10.16 0)
          (xy -7.62 8.89)
        )
        (stroke (width 0.254) (type default))
        (fill (type background))
      )
    )
    (symbol "AD8475ACPZ_1_1"
      (pin input line (at -10.16 5.08 0) (length 2.54)
        (name "+IN0.4x" (effects (font (size 0.889 0.889))))
        (number "1" (effects (font (size 1.27 1.27))))
      )
      (pin output line (at 10.16 -2.54 180) (length 5.08)
        (name "+" (effects (font (size 1.27 1.27))))
        (number "10" (effects (font (size 1.27 1.27))))
      )
      (pin output line (at 10.16 2.54 180) (length 5.08)
        (name "-" (effects (font (size 1.27 1.27))))
        (number "11" (effects (font (size 1.27 1.27))))
      )
      (pin no_connect line (at -7.62 -7.62 0) (length 2.54) hide
        (name "NC" (effects (font (size 1.27 1.27))))
        (number "12" (effects (font (size 1.27 1.27))))
      )
      (pin power_in line (at 0 -10.16 90) (length 5.08)
        (name "-Vs" (effects (font (size 0.889 0.889))))
        (number "13" (effects (font (size 1.27 1.27))))
      )
      (pin passive line (at 0 -10.16 90) (length 5.08) hide
        (name "-Vs" (effects (font (size 0.889 0.889))))
        (number "14" (effects (font (size 1.27 1.27))))
      )
      (pin passive line (at 0 -10.16 90) (length 5.08) hide
        (name "-Vs" (effects (font (size 0.889 0.889))))
        (number "15" (effects (font (size 1.27 1.27))))
      )
      (pin input line (at -10.16 5.08 0) (length 2.54) hide
        (name "+IN0.4x" (effects (font (size 0.889 0.889))))
        (number "16" (effects (font (size 1.27 1.27))))
      )
      (pin passive line (at 2.54 -10.16 90) (length 6.35)
        (name "EP" (effects (font (size 0.889 0.889))))
        (number "17" (effects (font (size 1.27 1.27))))
      )
      (pin input line (at -10.16 2.54 0) (length 2.54)
        (name "+IN0.8x" (effects (font (size 0.889 0.889))))
        (number "2" (effects (font (size 1.27 1.27))))
      )
      (pin input line (at -10.16 -2.54 0) (length 2.54)
        (name "-IN0.8x" (effects (font (size 0.889 0.889))))
        (number "3" (effects (font (size 1.27 1.27))))
      )
      (pin input line (at -10.16 -5.08 0) (length 2.54)
        (name "-IN0.4x" (effects (font (size 0.889 0.889))))
        (number "4" (effects (font (size 1.27 1.27))))
      )
      (pin input line (at -10.16 -5.08 0) (length 2.54) hide
        (name "-IN0.4x" (effects (font (size 0.889 0.889))))
        (number "5" (effects (font (size 1.27 1.27))))
      )
      (pin power_in line (at 0 10.16 270) (length 5.08)
        (name "+Vs" (effects (font (size 0.889 0.889))))
        (number "6" (effects (font (size 1.27 1.27))))
      )
      (pin passive line (at 0 10.16 270) (length 5.08) hide
        (name "+Vs" (effects (font (size 0.889 0.889))))
        (number "7" (effects (font (size 1.27 1.27))))
      )
      (pin passive line (at 0 10.16 270) (length 5.08) hide
        (name "+Vs" (effects (font (size 0.889 0.889))))
        (number "8" (effects (font (size 1.27 1.27))))
      )
      (pin power_in line (at 2.54 10.16 270) (length 6.35)
        (name "VOCM" (effects (font (size 0.889 0.889))))
        (number "9" (effects (font (size 1.27 1.27))))
      )
    )
  )
  (symbol "AD8475xRMZ" (pin_names (offset 0.254)) (in_bom yes) (on_board yes)
    (property "Reference" "U" (at 3.81 6.35 0)
      (effects (font (size 1.27 1.27)) (justify left))
    )
    (property "Value" "AD8475xRMZ" (at 3.81 8.89 0)
      (effects (font (size 1.27 1.27)) (justify left))
    )
    (property "Footprint" "Package_SO:MSOP-10_3x3mm_P0.5mm" (at -1.27 0 0)
      (effects (font (size 1.27 1.27)) hide)
    )
    (property "Datasheet" "https://www.analog.com/media/en/technical-documentation/data-sheets/AD8475.pdf" (at 12.7 5.08 0)
      (effects (font (size 1.27 1.27)) hide)
    )
    (property "ki_keywords" "selectable gain ADC driver" (at 0 0 0)
      (effects (font (size 1.27 1.27)) hide)
    )
    (property "ki_description" "Precision, Selectable Gain, Fully Differential Funnel Amplifier, MSOP-10" (at 0 0 0)
      (effects (font (size 1.27 1.27)) hide)
    )
    (property "ki_fp_filters" "MSOP*3x3mm*P0.5mm*" (at 0 0 0)
      (effects (font (size 1.27 1.27)) hide)
    )
    (symbol "AD8475xRMZ_0_1"
      (polyline
        (pts
          (xy -7.62 8.89)
          (xy -7.62 -8.89)
          (xy 10.16 0)
          (xy -7.62 8.89)
        )
        (stroke (width 0.254) (type default))
        (fill (type background))
      )
    )
    (symbol "AD8475xRMZ_1_1"
      (pin input line (at -10.16 -2.54 0) (length 2.54)
        (name "-IN0.8x" (effects (font (size 0.889 0.889))))
        (number "1" (effects (font (size 1.27 1.27))))
      )
      (pin input line (at -10.16 2.54 0) (length 2.54)
        (name "+IN0.8x" (effects (font (size 0.889 0.889))))
        (number "10" (effects (font (size 1.27 1.27))))
      )
      (pin input line (at -10.16 -5.08 0) (length 2.54)
        (name "-IN0.4x" (effects (font (size 0.889 0.889))))
        (number "2" (effects (font (size 1.27 1.27))))
      )
      (pin power_in line (at 0 10.16 270) (length 5.08)
        (name "+Vs" (effects (font (size 0.889 0.889))))
        (number "3" (effects (font (size 1.27 1.27))))
      )
      (pin power_in line (at 2.54 10.16 270) (length 6.35)
        (name "VOCM" (effects (font (size 0.889 0.889))))
        (number "4" (effects (font (size 1.27 1.27))))
      )
      (pin output line (at 10.16 -2.54 180) (length 5.08)
        (name "+" (effects (font (size 1.27 1.27))))
        (number "5" (effects (font (size 1.27 1.27))))
      )
      (pin output line (at 10.16 2.54 180) (length 5.08)
        (name "-" (effects (font (size 1.27 1.27))))
        (number "6" (effects (font (size 1.27 1.27))))
      )
      (pin no_connect line (at -7.62 -7.62 0) (length 2.54) hide
        (name "NC" (effects (font (size 1.27 1.27))))
        (number "7" (effects (font (size 1.27 1.27))))
      )
      (pin power_in line (at 0 -10.16 90) (length 5.08)
        (name "-Vs" (effects (font (size 0.889 0.889))))
        (number "8" (effects (font (size 1.27 1.27))))
      )
      (pin input line (at -10.16 5.08 0) (length 2.54)
        (name "+IN0.4x" (effects (font (size 0.889 0.889))))
        (number "9" (effects (font (size 1.27 1.27))))
      )
    )
  )
  (symbol "ADA4940-1xCP" (in_bom yes) (on_board yes)
    (property "Reference" "U" (at 5.08 5.08 0)
      (effects (font (size 1.27 1.27)))
    )
    (property "Value" "ADA4940-1xCP" (at 11.43 -5.08 0)
      (effects (font (size 1.27 1.27)))
    )
    (property "Footprint" "Package_CSP:LFCSP-16-1EP_3x3mm_P0.5mm_EP1.3x1.3mm_ThermalVias" (at 0 -10.16 0)
      (effects (font (size 1.27 1.27)) hide)
    )
    (property "Datasheet" "https://www.analog.com/media/en/technical-documentation/data-sheets/ADA4940-1_4940-2.pdf" (at -43.18 30.48 0)
      (effects (font (size 1.27 1.27)) hide)
    )
    (property "ki_keywords" "differential amplifier" (at 0 0 0)
      (effects (font (size 1.27 1.27)) hide)
    )
    (property "ki_description" "Ultralow Power, Low Distortion, Fully Differential ADC Drivers, LFCSP-16" (at 0 0 0)
      (effects (font (size 1.27 1.27)) hide)
    )
    (property "ki_fp_filters" "LFCSP*1EP*3x3mm*P0.5mm*" (at 0 0 0)
      (effects (font (size 1.27 1.27)) hide)
    )
    (symbol "ADA4940-1xCP_1_1"
      (polyline
        (pts
          (xy -5.08 7.62)
          (xy -5.08 -7.62)
          (xy 10.16 0)
          (xy -5.08 7.62)
        )
        (stroke (width 0.254) (type default))
        (fill (type background))
      )
      (pin input line (at 0 -7.62 90) (length 2.54)
        (name "-FB" (effects (font (size 0.508 0.508))))
        (number "1" (effects (font (size 0.762 0.762))))
      )
      (pin output line (at 10.16 2.54 180) (length 5.08)
        (name "+OUT" (effects (font (size 0.508 0.508))))
        (number "10" (effects (font (size 0.508 0.508))))
      )
      (pin output line (at 10.16 -2.54 180) (length 5.08)
        (name "-OUT" (effects (font (size 0.508 0.508))))
        (number "11" (effects (font (size 0.508 0.508))))
      )
      (pin input line (at -7.62 2.54 0) (length 2.54)
        (name "~{DISABLE}" (effects (font (size 0.508 0.508))))
        (number "12" (effects (font (size 1.27 1.27))))
      )
      (pin input line (at -7.62 -5.08 0) (length 2.54)
        (name "+IN" (effects (font (size 0.508 0.508))))
        (number "2" (effects (font (size 1.27 1.27))))
      )
      (pin input line (at -7.62 5.08 0) (length 2.54)
        (name "-IN" (effects (font (size 0.508 0.508))))
        (number "3" (effects (font (size 1.27 1.27))))
      )
      (pin input line (at 0 7.62 270) (length 2.54)
        (name "+FB" (effects (font (size 0.508 0.508))))
        (number "4" (effects (font (size 0.762 0.762))))
      )
      (pin input line (at -7.62 -2.54 0) (length 2.54)
        (name "VOCM" (effects (font (size 0.508 0.508))))
        (number "9" (effects (font (size 1.27 1.27))))
      )
    )
    (symbol "ADA4940-1xCP_2_1"
      (pin power_in line (at 0 -6.35 90) (length 2.54)
        (name "-Vs" (effects (font (size 0.508 0.508))))
        (number "13" (effects (font (size 1.27 1.27))))
      )
      (pin passive line (at 0 -6.35 90) (length 2.54) hide
        (name "-Vs" (effects (font (size 0.508 0.508))))
        (number "14" (effects (font (size 1.27 1.27))))
      )
      (pin passive line (at 0 -6.35 90) (length 2.54) hide
        (name "-Vs" (effects (font (size 0.508 0.508))))
        (number "15" (effects (font (size 1.27 1.27))))
      )
      (pin passive line (at 0 -6.35 90) (length 2.54) hide
        (name "-Vs" (effects (font (size 0.508 0.508))))
        (number "16" (effects (font (size 1.27 1.27))))
      )
      (pin passive line (at 2.54 -6.35 90) (length 2.54)
        (name "EP" (effects (font (size 0.508 0.508))))
        (number "17" (effects (font (size 1.27 1.27))))
      )
      (pin power_in line (at 0 6.35 270) (length 2.54)
        (name "+Vs" (effects (font (size 0.508 0.508))))
        (number "5" (effects (font (size 1.27 1.27))))
      )
      (pin passive line (at 0 6.35 270) (length 2.54) hide
        (name "+Vs" (effects (font (size 0.508 0.508))))
        (number "6" (effects (font (size 1.27 1.27))))
      )
      (pin passive line (at 0 6.35 270) (length 2.54) hide
        (name "+Vs" (effects (font (size 0.508 0.508))))
        (number "7" (effects (font (size 1.27 1.27))))
      )
      (pin passive line (at 0 6.35 270) (length 2.54) hide
        (name "+Vs" (effects (font (size 0.508 0.508))))
        (number "8" (effects (font (size 1.27 1.27))))
      )
    )
  )
  (symbol "ADA4940-2" (in_bom yes) (on_board yes)
    (property "Reference" "U" (at 5.08 5.08 0)
      (effects (font (size 1.27 1.27)))
    )
    (property "Value" "ADA4940-2" (at 8.89 -5.08 0)
      (effects (font (size 1.27 1.27)))
    )
    (property "Footprint" "Package_CSP:LFCSP-24-1EP_4x4mm_P0.5mm_EP2.5x2.5mm" (at 0 -10.16 0)
      (effects (font (size 1.27 1.27)) hide)
    )
    (property "Datasheet" "https://www.analog.com/media/en/technical-documentation/data-sheets/ADA4940-1_4940-2.pdf" (at -43.18 30.48 0)
      (effects (font (size 1.27 1.27)) hide)
    )
    (property "ki_keywords" "differential amplifier" (at 0 0 0)
      (effects (font (size 1.27 1.27)) hide)
    )
    (property "ki_description" "Ultralow Power, Low Distortion, Fully Differential ADC Drivers, Dual-Channel, LFCSP-24" (at 0 0 0)
      (effects (font (size 1.27 1.27)) hide)
    )
    (property "ki_fp_filters" "LFCSP*1EP*4x4mm*P0.5mm*" (at 0 0 0)
      (effects (font (size 1.27 1.27)) hide)
    )
    (symbol "ADA4940-2_0_1"
      (polyline
        (pts
          (xy 5.08 -3.175)
          (xy 3.81 -3.175)
        )
        (stroke (width 0) (type default))
        (fill (type none))
      )
    )
    (symbol "ADA4940-2_1_1"
      (polyline
        (pts
          (xy -5.08 7.62)
          (xy -5.08 -7.62)
          (xy 10.16 0)
          (xy -5.08 7.62)
        )
        (stroke (width 0.254) (type default))
        (fill (type background))
      )
      (pin input line (at -7.62 5.08 0) (length 2.54)
        (name "-IN1" (effects (font (size 0.508 0.508))))
        (number "1" (effects (font (size 1.27 1.27))))
      )
      (pin input line (at -7.62 -2.54 0) (length 2.54)
        (name "VOCM1" (effects (font (size 0.508 0.508))))
        (number "17" (effects (font (size 1.27 1.27))))
      )
      (pin output line (at 10.16 2.54 180) (length 5.08)
        (name "+1" (effects (font (size 0.508 0.508))))
        (number "18" (effects (font (size 0.508 0.508))))
      )
      (pin output line (at 10.16 -2.54 180) (length 5.08)
        (name "-1" (effects (font (size 0.508 0.508))))
        (number "19" (effects (font (size 0.508 0.508))))
      )
      (pin input line (at 0 7.62 270) (length 2.54)
        (name "+FB1" (effects (font (size 0.508 0.508))))
        (number "2" (effects (font (size 0.762 0.762))))
      )
      (pin input line (at -7.62 2.54 0) (length 2.54)
        (name "~{DISABLE1}" (effects (font (size 0.508 0.508))))
        (number "20" (effects (font (size 1.27 1.27))))
      )
      (pin input line (at 0 -7.62 90) (length 2.54)
        (name "-FB1" (effects (font (size 0.508 0.508))))
        (number "23" (effects (font (size 0.762 0.762))))
      )
      (pin input line (at -7.62 -5.08 0) (length 2.54)
        (name "+IN1" (effects (font (size 0.508 0.508))))
        (number "24" (effects (font (size 1.27 1.27))))
      )
    )
    (symbol "ADA4940-2_2_1"
      (polyline
        (pts
          (xy -5.08 7.62)
          (xy -5.08 -7.62)
          (xy 10.16 0)
          (xy -5.08 7.62)
        )
        (stroke (width 0.254) (type default))
        (fill (type background))
      )
      (pin input line (at -7.62 -2.54 0) (length 2.54)
        (name "VOCM2" (effects (font (size 0.508 0.508))))
        (number "11" (effects (font (size 1.27 1.27))))
      )
      (pin output line (at 10.16 2.54 180) (length 5.08)
        (name "+2" (effects (font (size 0.508 0.508))))
        (number "12" (effects (font (size 0.508 0.508))))
      )
      (pin output line (at 10.16 -2.54 180) (length 5.08)
        (name "-2" (effects (font (size 0.508 0.508))))
        (number "13" (effects (font (size 0.508 0.508))))
      )
      (pin input line (at -7.62 2.54 0) (length 2.54)
        (name "~{DISABLE2}" (effects (font (size 0.508 0.508))))
        (number "14" (effects (font (size 1.27 1.27))))
      )
      (pin input line (at 0 -7.62 90) (length 2.54)
        (name "-FB2" (effects (font (size 0.508 0.508))))
        (number "5" (effects (font (size 0.762 0.762))))
      )
      (pin input line (at -7.62 -5.08 0) (length 2.54)
        (name "+IN2" (effects (font (size 0.508 0.508))))
        (number "6" (effects (font (size 1.27 1.27))))
      )
      (pin input line (at -7.62 5.08 0) (length 2.54)
        (name "-IN2" (effects (font (size 0.508 0.508))))
        (number "7" (effects (font (size 1.27 1.27))))
      )
      (pin input line (at 0 7.62 270) (length 2.54)
        (name "+FB2" (effects (font (size 0.508 0.508))))
        (number "8" (effects (font (size 0.762 0.762))))
      )
    )
    (symbol "ADA4940-2_3_1"
      (pin input line (at 2.54 -7.62 90) (length 3.81)
        (name "-FB2" (effects (font (size 0.508 0.508))))
        (number "21" (effects (font (size 0.762 0.762))))
      )
      (pin input line (at 2.54 -7.62 90) (length 3.81) hide
        (name "-FB2" (effects (font (size 0.508 0.508))))
        (number "22" (effects (font (size 0.762 0.762))))
      )
      (pin passive line (at 5.08 -7.62 90) (length 4.445)
        (name "EP" (effects (font (size 0.508 0.508))))
        (number "25" (effects (font (size 0.762 0.762))))
      )
      (pin input line (at 2.54 7.62 270) (length 3.81)
        (name "+FB2" (effects (font (size 0.508 0.508))))
        (number "3" (effects (font (size 0.762 0.762))))
      )
      (pin input line (at 2.54 7.62 270) (length 3.81) hide
        (name "+FB2" (effects (font (size 0.508 0.508))))
        (number "4" (effects (font (size 0.762 0.762))))
      )
    )
    (symbol "ADA4940-2_4_1"
      (pin input line (at 2.54 7.62 270) (length 3.81) hide
        (name "+FB2" (effects (font (size 0.508 0.508))))
        (number "10" (effects (font (size 0.762 0.762))))
      )
      (pin input line (at 2.54 -7.62 90) (length 3.81)
        (name "-FB2" (effects (font (size 0.508 0.508))))
        (number "15" (effects (font (size 0.762 0.762))))
      )
      (pin input line (at 2.54 -7.62 90) (length 3.81) hide
        (name "-FB2" (effects (font (size 0.508 0.508))))
        (number "16" (effects (font (size 0.762 0.762))))
      )
      (pin input line (at 2.54 7.62 270) (length 3.81)
        (name "+FB2" (effects (font (size 0.508 0.508))))
        (number "9" (effects (font (size 0.762 0.762))))
      )
    )
  )
  (symbol "AMC1100DWV" (pin_names (offset 0.127)) (in_bom yes) (on_board yes)
    (property "Reference" "U" (at 7.62 8.89 0)
      (effects (font (size 1.27 1.27)) (justify right))
    )
    (property "Value" "AMC1100DWV" (at 1.27 6.35 0)
      (effects (font (size 1.27 1.27)) (justify left))
    )
    (property "Footprint" "Package_SO:SOIC-8_7.5x5.85mm_P1.27mm" (at 0 0 0)
      (effects (font (size 1.27 1.27)) hide)
    )
    (property "Datasheet" "http://www.ti.com/lit/ds/symlink/amc1100.pdf" (at 16.51 -17.78 0)
      (effects (font (size 1.27 1.27)) hide)
    )
    (property "ki_keywords" "isolated difference amplifier" (at 0 0 0)
      (effects (font (size 1.27 1.27)) hide)
    )
    (property "ki_description" "Fully-Differential Isolation Amplifier, Fixed Gain = 8, UL1577/IEC60747-5-2 Approved, SOIC-8" (at 0 0 0)
      (effects (font (size 1.27 1.27)) hide)
    )
    (property "ki_fp_filters" "SOIC*7.5x5.85mm*P1.27mm*" (at 0 0 0)
      (effects (font (size 1.27 1.27)) hide)
    )
    (symbol "AMC1100DWV_0_1"
      (polyline
        (pts
          (xy -1.27 -3.175)
          (xy -1.27 -4.445)
        )
        (stroke (width 0) (type default))
        (fill (type none))
      )
      (polyline
        (pts
          (xy -1.27 -0.635)
          (xy -1.27 -1.905)
        )
        (stroke (width 0) (type default))
        (fill (type none))
      )
      (polyline
        (pts
          (xy -1.27 1.905)
          (xy -1.27 0.635)
        )
        (stroke (width 0) (type default))
        (fill (type none))
      )
      (polyline
        (pts
          (xy -1.27 4.445)
          (xy -1.27 3.175)
        )
        (stroke (width 0) (type default))
        (fill (type none))
      )
      (polyline
        (pts
          (xy -7.62 -7.62)
          (xy -7.62 7.62)
          (xy 7.62 0)
          (xy -7.62 -7.62)
        )
        (stroke (width 0.254) (type default))
        (fill (type background))
      )
    )
    (symbol "AMC1100DWV_1_1"
      (pin power_in line (at -2.54 7.62 270) (length 2.54)
        (name "V+" (effects (font (size 1.27 1.27))))
        (number "1" (effects (font (size 1.27 1.27))))
      )
      (pin input line (at -10.16 2.54 0) (length 2.54)
        (name "+" (effects (font (size 1.27 1.27))))
        (number "2" (effects (font (size 1.27 1.27))))
      )
      (pin input line (at -10.16 -2.54 0) (length 2.54)
        (name "-" (effects (font (size 1.27 1.27))))
        (number "3" (effects (font (size 1.27 1.27))))
      )
      (pin power_in line (at -2.54 -7.62 90) (length 2.54)
        (name "V-" (effects (font (size 1.27 1.27))))
        (number "4" (effects (font (size 1.27 1.27))))
      )
      (pin power_in line (at 0 -7.62 90) (length 3.81)
        (name "V-" (effects (font (size 1.27 1.27))))
        (number "5" (effects (font (size 1.27 1.27))))
      )
      (pin output line (at 7.62 -2.54 180) (length 5.08)
        (name "-" (effects (font (size 1.27 1.27))))
        (number "6" (effects (font (size 1.27 1.27))))
      )
      (pin output line (at 7.62 2.54 180) (length 5.08)
        (name "+" (effects (font (size 1.27 1.27))))
        (number "7" (effects (font (size 1.27 1.27))))
      )
      (pin power_in line (at 0 7.62 270) (length 3.81)
        (name "V+" (effects (font (size 1.27 1.27))))
        (number "8" (effects (font (size 1.27 1.27))))
      )
    )
  )
  (symbol "AMC1300DWV" (extends "AMC1100DWV")
    (property "Reference" "U" (at 7.62 8.89 0)
      (effects (font (size 1.27 1.27)) (justify right))
    )
    (property "Value" "AMC1300DWV" (at 1.27 6.35 0)
      (effects (font (size 1.27 1.27)) (justify left))
    )
    (property "Footprint" "Package_SO:SOIC-8_7.5x5.85mm_P1.27mm" (at 0 0 0)
      (effects (font (size 1.27 1.27)) hide)
    )
    (property "Datasheet" "http://www.ti.com/lit/ds/symlink/amc1300.pdf" (at 16.51 -17.78 0)
      (effects (font (size 1.27 1.27)) hide)
    )
    (property "ki_keywords" "isolated difference amplifier" (at 0 0 0)
      (effects (font (size 1.27 1.27)) hide)
    )
    (property "ki_description" "Precision, ±250-mV Input, Reinforced Isolated Amplifier, Fixed Gain = 8.2, UL1577/VDE V 0884-11 Approved, SOIC-8" (at 0 0 0)
      (effects (font (size 1.27 1.27)) hide)
    )
    (property "ki_fp_filters" "SOIC*7.5x5.85mm*P1.27mm*" (at 0 0 0)
      (effects (font (size 1.27 1.27)) hide)
    )
  )
  (symbol "LM733CH" (pin_names (offset 0.127)) (in_bom yes) (on_board yes)
    (property "Reference" "U" (at 3.81 6.35 0)
      (effects (font (size 1.27 1.27)) (justify left))
    )
    (property "Value" "LM733CH" (at 3.81 -6.35 0)
      (effects (font (size 1.27 1.27)) (justify left))
    )
    (property "Footprint" "Package_TO_SOT_THT:TO-5-10" (at 0 0 0)
      (effects (font (size 1.27 1.27)) hide)
    )
    (property "Datasheet" "http://www.soemtron.org/downloads/disposals/lm733cn.pdf" (at 0 0 0)
      (effects (font (size 1.27 1.27)) hide)
    )
    (property "ki_keywords" "single differential video opamp" (at 0 0 0)
      (effects (font (size 1.27 1.27)) hide)
    )
    (property "ki_description" "Single Differential Amplifier, TO-5-10" (at 0 0 0)
      (effects (font (size 1.27 1.27)) hide)
    )
    (property "ki_fp_filters" "TO?5*" (at 0 0 0)
      (effects (font (size 1.27 1.27)) hide)
    )
    (symbol "LM733CH_0_1"
      (polyline
        (pts
          (xy 5.08 -2.54)
          (xy 3.81 -2.54)
          (xy 3.81 -0.635)
        )
        (stroke (width 0) (type default))
        (fill (type none))
      )
      (polyline
        (pts
          (xy 5.08 2.54)
          (xy 3.81 2.54)
          (xy 3.81 0.635)
        )
        (stroke (width 0) (type default))
        (fill (type none))
      )
      (polyline
        (pts
          (xy 5.08 0)
          (xy -5.08 5.08)
          (xy -5.08 -5.08)
          (xy 5.08 0)
        )
        (stroke (width 0.254) (type default))
        (fill (type background))
      )
    )
    (symbol "LM733CH_1_1"
      (pin input line (at -7.62 2.54 0) (length 2.54)
        (name "~" (effects (font (size 1.27 1.27))))
        (number "1" (effects (font (size 1.27 1.27))))
      )
      (pin passive line (at 0 -7.62 90) (length 5.08)
        (name "2A" (effects (font (size 0.508 0.508))))
        (number "10" (effects (font (size 1.27 1.27))))
      )
      (pin input line (at -7.62 -2.54 0) (length 2.54)
        (name "~" (effects (font (size 1.27 1.27))))
        (number "2" (effects (font (size 1.27 1.27))))
      )
      (pin passive line (at 2.54 -7.62 90) (length 6.35)
        (name "2B" (effects (font (size 0.508 0.508))))
        (number "3" (effects (font (size 1.27 1.27))))
      )
      (pin passive line (at 2.54 7.62 270) (length 6.35)
        (name "1B" (effects (font (size 0.508 0.508))))
        (number "4" (effects (font (size 1.27 1.27))))
      )
      (pin power_in line (at -2.54 -7.62 90) (length 3.81)
        (name "V-" (effects (font (size 1.27 1.27))))
        (number "5" (effects (font (size 1.27 1.27))))
      )
      (pin output line (at 7.62 -2.54 180) (length 2.54)
        (name "~" (effects (font (size 1.27 1.27))))
        (number "6" (effects (font (size 1.27 1.27))))
      )
      (pin output line (at 7.62 2.54 180) (length 2.54)
        (name "~" (effects (font (size 1.27 1.27))))
        (number "7" (effects (font (size 1.27 1.27))))
      )
      (pin power_in line (at -2.54 7.62 270) (length 3.81)
        (name "V+" (effects (font (size 1.27 1.27))))
        (number "8" (effects (font (size 1.27 1.27))))
      )
      (pin passive line (at 0 7.62 270) (length 5.08)
        (name "1A" (effects (font (size 0.508 0.508))))
        (number "9" (effects (font (size 1.27 1.27))))
      )
    )
  )
  (symbol "LM733H" (extends "LM733CH")
    (property "Reference" "U" (at 3.81 6.35 0)
      (effects (font (size 1.27 1.27)) (justify left))
    )
    (property "Value" "LM733H" (at 3.81 -6.35 0)
      (effects (font (size 1.27 1.27)) (justify left))
    )
    (property "Footprint" "Package_TO_SOT_THT:TO-5-10" (at 0 0 0)
      (effects (font (size 1.27 1.27)) hide)
    )
    (property "Datasheet" "http://www.soemtron.org/downloads/disposals/lm733cn.pdf" (at 0 0 0)
      (effects (font (size 1.27 1.27)) hide)
    )
    (property "ki_keywords" "single differential video opamp" (at 0 0 0)
      (effects (font (size 1.27 1.27)) hide)
    )
    (property "ki_description" "Single Differential Amplifier, TO-5-10" (at 0 0 0)
      (effects (font (size 1.27 1.27)) hide)
    )
    (property "ki_fp_filters" "TO?5*" (at 0 0 0)
      (effects (font (size 1.27 1.27)) hide)
    )
  )
  (symbol "LM733CN" (pin_names (offset 0.127)) (in_bom yes) (on_board yes)
    (property "Reference" "U" (at 3.81 6.35 0)
      (effects (font (size 1.27 1.27)) (justify left))
    )
    (property "Value" "LM733CN" (at 3.81 -6.35 0)
      (effects (font (size 1.27 1.27)) (justify left))
    )
    (property "Footprint" "Package_DIP:DIP-14_W7.62mm" (at 0 0 0)
      (effects (font (size 1.27 1.27)) hide)
    )
    (property "Datasheet" "http://www.soemtron.org/downloads/disposals/lm733cn.pdf" (at 0 0 0)
      (effects (font (size 1.27 1.27)) hide)
    )
    (property "ki_keywords" "single differential video opamp" (at 0 0 0)
      (effects (font (size 1.27 1.27)) hide)
    )
    (property "ki_description" "Single Differential Amplifier, DIP-14" (at 0 0 0)
      (effects (font (size 1.27 1.27)) hide)
    )
    (property "ki_fp_filters" "DIP*W7.62mm*" (at 0 0 0)
      (effects (font (size 1.27 1.27)) hide)
    )
    (symbol "LM733CN_0_1"
      (polyline
        (pts
          (xy 5.08 -2.54)
          (xy 3.81 -2.54)
          (xy 3.81 -0.635)
        )
        (stroke (width 0) (type default))
        (fill (type none))
      )
      (polyline
        (pts
          (xy 5.08 2.54)
          (xy 3.81 2.54)
          (xy 3.81 0.635)
        )
        (stroke (width 0) (type default))
        (fill (type none))
      )
      (polyline
        (pts
          (xy 5.08 0)
          (xy -5.08 5.08)
          (xy -5.08 -5.08)
          (xy 5.08 0)
        )
        (stroke (width 0.254) (type default))
        (fill (type background))
      )
    )
    (symbol "LM733CN_1_1"
      (pin input line (at -7.62 -2.54 0) (length 2.54)
        (name "~" (effects (font (size 1.27 1.27))))
        (number "1" (effects (font (size 1.27 1.27))))
      )
      (pin power_in line (at -2.54 7.62 270) (length 3.81)
        (name "V+" (effects (font (size 1.27 1.27))))
        (number "10" (effects (font (size 1.27 1.27))))
      )
      (pin passive line (at 0 7.62 270) (length 5.08)
        (name "1A" (effects (font (size 0.508 0.508))))
        (number "11" (effects (font (size 1.27 1.27))))
      )
      (pin passive line (at 0 -7.62 90) (length 5.08)
        (name "2A" (effects (font (size 0.508 0.508))))
        (number "12" (effects (font (size 1.27 1.27))))
      )
      (pin no_connect line (at -2.54 -3.81 90) (length 2.54) hide
        (name "NC" (effects (font (size 1.27 1.27))))
        (number "13" (effects (font (size 1.27 1.27))))
      )
      (pin input line (at -7.62 2.54 0) (length 2.54)
        (name "~" (effects (font (size 1.27 1.27))))
        (number "14" (effects (font (size 1.27 1.27))))
      )
      (pin no_connect line (at 2.54 1.27 270) (length 2.54) hide
        (name "NC" (effects (font (size 1.27 1.27))))
        (number "2" (effects (font (size 1.27 1.27))))
      )
      (pin passive line (at 2.54 -7.62 90) (length 6.35)
        (name "2B" (effects (font (size 0.508 0.508))))
        (number "3" (effects (font (size 1.27 1.27))))
      )
      (pin passive line (at 2.54 7.62 270) (length 6.35)
        (name "1B" (effects (font (size 0.508 0.508))))
        (number "4" (effects (font (size 1.27 1.27))))
      )
      (pin power_in line (at -2.54 -7.62 90) (length 3.81)
        (name "V-" (effects (font (size 1.27 1.27))))
        (number "5" (effects (font (size 1.27 1.27))))
      )
      (pin no_connect line (at 0 2.54 270) (length 2.54) hide
        (name "NC" (effects (font (size 1.27 1.27))))
        (number "6" (effects (font (size 1.27 1.27))))
      )
      (pin output line (at 7.62 -2.54 180) (length 2.54)
        (name "~" (effects (font (size 1.27 1.27))))
        (number "7" (effects (font (size 1.27 1.27))))
      )
      (pin output line (at 7.62 2.54 180) (length 2.54)
        (name "~" (effects (font (size 1.27 1.27))))
        (number "8" (effects (font (size 1.27 1.27))))
      )
      (pin no_connect line (at 0 -2.54 90) (length 2.54) hide
        (name "NC" (effects (font (size 1.27 1.27))))
        (number "9" (effects (font (size 1.27 1.27))))
      )
    )
  )
  (symbol "LTC1992-x-xMS8" (in_bom yes) (on_board yes)
    (property "Reference" "U" (at 0 6.35 0)
      (effects (font (size 1.27 1.27)))
    )
    (property "Value" "LTC1992-x-xMS8" (at 10.16 -6.35 0)
      (effects (font (size 1.27 1.27)))
    )
    (property "Footprint" "Package_SO:MSOP-8_3x3mm_P0.65mm" (at 0 0 0)
      (effects (font (size 1.27 1.27)) hide)
    )
    (property "Datasheet" "https://www.analog.com/media/en/technical-documentation/data-sheets/1992fb.pdf" (at 0 0 0)
      (effects (font (size 1.27 1.27)) hide)
    )
    (property "ki_keywords" "fully differential amplifier" (at 0 0 0)
      (effects (font (size 1.27 1.27)) hide)
    )
    (property "ki_description" "Low-Noise Precision Fully Differential Amplifier, fixed or variable gain, MSOP-8" (at 0 0 0)
      (effects (font (size 1.27 1.27)) hide)
    )
    (property "ki_fp_filters" "MSOP*3x3mm*P0.65mm*" (at 0 0 0)
      (effects (font (size 1.27 1.27)) hide)
    )
    (symbol "LTC1992-x-xMS8_0_1"
      (polyline
        (pts
          (xy 4.4704 -2.54)
          (xy 2.54 -2.54)
        )
        (stroke (width 0) (type default))
        (fill (type none))
      )
    )
    (symbol "LTC1992-x-xMS8_1_1"
      (polyline
        (pts
          (xy -7.62 7.62)
          (xy -7.62 -7.62)
          (xy 7.62 0)
          (xy -7.62 7.62)
        )
        (stroke (width 0.254) (type default))
        (fill (type background))
      )
      (circle (center 3.937 2.54) (radius 0.4064)
        (stroke (width 0) (type default))
        (fill (type none))
      )
      (pin input line (at -10.16 -5.08 0) (length 2.54)
        (name "-" (effects (font (size 1.016 1.016))))
        (number "1" (effects (font (size 1.016 1.016))))
      )
      (pin input line (at -10.16 -2.54 0) (length 2.54)
        (name "V_{OCM}" (effects (font (size 1.016 1.016))))
        (number "2" (effects (font (size 1.016 1.016))))
      )
      (pin power_in line (at -2.54 7.62 270) (length 2.54)
        (name "+V_{S}" (effects (font (size 1.016 1.016))))
        (number "3" (effects (font (size 1.016 1.016))))
      )
      (pin output line (at 7.62 -2.54 180) (length 3.175)
        (name "" (effects (font (size 1.016 1.016))))
        (number "4" (effects (font (size 1.016 1.016))))
      )
      (pin output line (at 7.62 2.54 180) (length 3.175)
        (name "" (effects (font (size 1.016 1.016))))
        (number "5" (effects (font (size 1.016 1.016))))
      )
      (pin power_in line (at -2.54 -7.62 90) (length 2.54)
        (name "-V_{S}" (effects (font (size 1.016 1.016))))
        (number "6" (effects (font (size 1.016 1.016))))
      )
      (pin input line (at -10.16 2.54 0) (length 2.54)
        (name "V_{Mid}" (effects (font (size 1.016 1.016))))
        (number "7" (effects (font (size 1.016 1.016))))
      )
      (pin input line (at -10.16 5.08 0) (length 2.54)
        (name "+" (effects (font (size 1.016 1.016))))
        (number "8" (effects (font (size 1.016 1.016))))
      )
    )
  )
  (symbol "THS4551xRGT" (in_bom yes) (on_board yes)
    (property "Reference" "U" (at 0 6.35 0)
      (effects (font (size 1.27 1.27)))
    )
    (property "Value" "THS4551xRGT" (at 10.16 -6.35 0)
      (effects (font (size 1.27 1.27)))
    )
    (property "Footprint" "Package_DFN_QFN:VQFN-16-1EP_3x3mm_P0.5mm_EP1.68x1.68mm" (at 0 0 0)
      (effects (font (size 1.27 1.27)) hide)
    )
    (property "Datasheet" "https://www.ti.com/lit/ds/symlink/ths4551.pdf" (at 0 0 0)
      (effects (font (size 1.27 1.27)) hide)
    )
    (property "ki_locked" "" (at 0 0 0)
      (effects (font (size 1.27 1.27)))
    )
    (property "ki_keywords" "differential amplifier" (at 0 0 0)
      (effects (font (size 1.27 1.27)) hide)
    )
    (property "ki_description" "Low-Noise Precision Fully Differential Amplifier, VQFN-16" (at 0 0 0)
      (effects (font (size 1.27 1.27)) hide)
    )
    (property "ki_fp_filters" "VQFN*1EP*3x3mm*P0.5mm*" (at 0 0 0)
      (effects (font (size 1.27 1.27)) hide)
    )
    (symbol "THS4551xRGT_1_1"
      (polyline
        (pts
          (xy -7.62 7.62)
          (xy -7.62 -7.62)
          (xy 7.62 0)
          (xy -7.62 7.62)
        )
        (stroke (width 0.254) (type default))
        (fill (type background))
      )
      (pin output line (at -2.54 -7.62 90) (length 2.54)
        (name "FB-" (effects (font (size 0.508 0.508))))
        (number "1" (effects (font (size 0.762 0.762))))
      )
      (pin output line (at 7.62 2.54 180) (length 5.08)
        (name "OUT+" (effects (font (size 0.508 0.508))))
        (number "10" (effects (font (size 0.508 0.508))))
      )
      (pin output line (at 7.62 -2.54 180) (length 5.08)
        (name "OUT-" (effects (font (size 0.508 0.508))))
        (number "11" (effects (font (size 0.508 0.508))))
      )
      (pin input line (at -10.16 2.54 0) (length 2.54)
        (name "~{PD}" (effects (font (size 0.508 0.508))))
        (number "12" (effects (font (size 1.27 1.27))))
      )
      (pin input line (at -10.16 5.08 0) (length 2.54)
        (name "IN+" (effects (font (size 0.508 0.508))))
        (number "2" (effects (font (size 1.27 1.27))))
      )
      (pin input line (at -10.16 -5.08 0) (length 2.54)
        (name "IN-" (effects (font (size 0.508 0.508))))
        (number "3" (effects (font (size 1.27 1.27))))
      )
      (pin output line (at -2.54 7.62 270) (length 2.54)
        (name "FB+" (effects (font (size 0.508 0.508))))
        (number "4" (effects (font (size 0.762 0.762))))
      )
      (pin input line (at -10.16 -2.54 0) (length 2.54)
        (name "VOCM" (effects (font (size 0.508 0.508))))
        (number "9" (effects (font (size 1.27 1.27))))
      )
    )
    (symbol "THS4551xRGT_2_1"
      (rectangle (start -5.08 5.08) (end 5.08 -5.08)
        (stroke (width 0.254) (type default))
        (fill (type background))
      )
      (pin power_in line (at -2.54 -7.62 90) (length 2.54)
        (name "VS-" (effects (font (size 0.508 0.508))))
        (number "13" (effects (font (size 1.27 1.27))))
      )
      (pin passive line (at -2.54 -7.62 90) (length 2.54) hide
        (name "VS-" (effects (font (size 0.508 0.508))))
        (number "14" (effects (font (size 1.27 1.27))))
      )
      (pin passive line (at -2.54 -7.62 90) (length 2.54) hide
        (name "VS-" (effects (font (size 0.508 0.508))))
        (number "15" (effects (font (size 1.27 1.27))))
      )
      (pin passive line (at -2.54 -7.62 90) (length 2.54) hide
        (name "VS-" (effects (font (size 0.508 0.508))))
        (number "16" (effects (font (size 1.27 1.27))))
      )
      (pin passive line (at 2.54 -7.62 90) (length 2.54)
        (name "EP" (effects (font (size 0.508 0.508))))
        (number "17" (effects (font (size 0.508 0.508))))
      )
      (pin power_in line (at 0 7.62 270) (length 2.54)
        (name "VS+" (effects (font (size 0.508 0.508))))
        (number "5" (effects (font (size 1.27 1.27))))
      )
      (pin passive line (at 0 7.62 270) (length 2.54) hide
        (name "VS+" (effects (font (size 0.508 0.508))))
        (number "6" (effects (font (size 1.27 1.27))))
      )
      (pin passive line (at 0 7.62 270) (length 2.54) hide
        (name "VS+" (effects (font (size 0.508 0.508))))
        (number "7" (effects (font (size 1.27 1.27))))
      )
      (pin passive line (at 0 7.62 270) (length 2.54) hide
        (name "VS+" (effects (font (size 0.508 0.508))))
        (number "8" (effects (font (size 1.27 1.27))))
      )
    )
  )
)
